(export (version D)
  (design
    (source /home/yukiya/Projects/MD/circuit/MD.sch)
    (date "2016年03月14日 12時31分48秒")
    (tool "Eeschema 4.0.1-3.201512221402+6198~38~ubuntu14.04.1-stable")
    (sheet (number 1) (name /) (tstamps /)
      (title_block
        (title "MotorDriver with Encoder Calculator")
        (company "Author is Yukiya")
        (rev)
        (date 2016-02-07)
        (source MD.sch)
        (comment (number 1) (value ""))
        (comment (number 2) (value ""))
        (comment (number 3) (value ""))
        (comment (number 4) (value "")))))
  (components
    (comp (ref HighFetLeft1)
      (value Q_NMOS_SDG)
      (footprint TO_SOT_Packages_THT:TO-220_Neutral123_Vertical_LargePads)
      (libsource (lib device) (part Q_NMOS_SDG))
      (sheetpath (names /) (tstamps /))
      (tstamp 56B5C0DA))
    (comp (ref LowFetLeft1)
      (value Q_NMOS_SDG)
      (footprint TO_SOT_Packages_THT:TO-220_Neutral123_Vertical)
      (libsource (lib device) (part Q_NMOS_SDG))
      (sheetpath (names /) (tstamps /))
      (tstamp 56B61561))
    (comp (ref LowFetRight1)
      (value Q_NMOS_SDG)
      (footprint TO_SOT_Packages_THT:TO-220_Neutral123_Vertical)
      (libsource (lib device) (part Q_NMOS_SDG))
      (sheetpath (names /) (tstamps /))
      (tstamp 56B61696))
    (comp (ref U1)
      (value PHOTORESISTOR)
      (footprint Housings_DIP:DIP-4_W7.62mm)
      (libsource (lib device) (part PHOTORESISTOR))
      (sheetpath (names /) (tstamps /))
      (tstamp 56B61B5C))
    (comp (ref R8)
      (value R)
      (footprint Resistors_SMD:R_0603)
      (libsource (lib device) (part R))
      (sheetpath (names /) (tstamps /))
      (tstamp 56B6F42B))
    (comp (ref U2)
      (value PHOTORESISTOR)
      (footprint Housings_DIP:DIP-4_W7.62mm)
      (libsource (lib device) (part PHOTORESISTOR))
      (sheetpath (names /) (tstamps /))
      (tstamp 56B70BFF))
    (comp (ref R9)
      (value R)
      (footprint Resistors_SMD:R_0603)
      (libsource (lib device) (part R))
      (sheetpath (names /) (tstamps /))
      (tstamp 56B70C05))
    (comp (ref U3)
      (value PHOTORESISTOR)
      (footprint Housings_DIP:DIP-4_W7.62mm)
      (libsource (lib device) (part PHOTORESISTOR))
      (sheetpath (names /) (tstamps /))
      (tstamp 56B70FF0))
    (comp (ref R18)
      (value R)
      (footprint Resistors_SMD:R_0603)
      (libsource (lib device) (part R))
      (sheetpath (names /) (tstamps /))
      (tstamp 56B70FF6))
    (comp (ref U4)
      (value PHOTORESISTOR)
      (footprint Housings_DIP:DIP-4_W7.62mm)
      (libsource (lib device) (part PHOTORESISTOR))
      (sheetpath (names /) (tstamps /))
      (tstamp 56B7100F))
    (comp (ref R19)
      (value R)
      (footprint Resistors_SMD:R_0603)
      (libsource (lib device) (part R))
      (sheetpath (names /) (tstamps /))
      (tstamp 56B71015))
    (comp (ref R15)
      (value R)
      (footprint Resistors_SMD:R_0603)
      (libsource (lib device) (part R))
      (sheetpath (names /) (tstamps /))
      (tstamp 56B73A6A))
    (comp (ref R20)
      (value R)
      (footprint Resistors_ThroughHole:Resistor_Horizontal_RM7mm)
      (libsource (lib device) (part R))
      (sheetpath (names /) (tstamps /))
      (tstamp 56B73B08))
    (comp (ref R21)
      (value R)
      (footprint Resistors_SMD:R_0603)
      (libsource (lib device) (part R))
      (sheetpath (names /) (tstamps /))
      (tstamp 56B73C75))
    (comp (ref BootStrap1)
      (value C)
      (footprint Capacitors_ThroughHole:C_Rect_L4_W2.5_P2.5)
      (libsource (lib device) (part C))
      (sheetpath (names /) (tstamps /))
      (tstamp 56B74093))
    (comp (ref BootStrap2)
      (value C)
      (footprint Capacitors_ThroughHole:C_Rect_L4_W2.5_P2.5)
      (libsource (lib device) (part C))
      (sheetpath (names /) (tstamps /))
      (tstamp 56B741B1))
    (comp (ref D2)
      (value D)
      (footprint Diodes_ThroughHole:Diode_DO-35_SOD27_Horizontal_RM10)
      (libsource (lib device) (part D))
      (sheetpath (names /) (tstamps /))
      (tstamp 56B74596))
    (comp (ref Snub1)
      (value D_Schottky)
      (footprint Buttons_Switches_SMD:SW_SPST_EVQPE1)
      (libsource (lib device) (part D_Schottky))
      (sheetpath (names /) (tstamps /))
      (tstamp 56B7531A))
    (comp (ref Snub3)
      (value D_Schottky)
      (footprint Buttons_Switches_SMD:SW_SPST_EVQPE1)
      (libsource (lib device) (part D_Schottky))
      (sheetpath (names /) (tstamps /))
      (tstamp 56B75407))
    (comp (ref Snub2)
      (value D_Schottky)
      (footprint Buttons_Switches_SMD:SW_SPST_EVQPE1)
      (libsource (lib device) (part D_Schottky))
      (sheetpath (names /) (tstamps /))
      (tstamp 56B75559))
    (comp (ref Snub4)
      (value D_Schottky)
      (footprint Buttons_Switches_SMD:SW_SPST_EVQPE1)
      (libsource (lib device) (part D_Schottky))
      (sheetpath (names /) (tstamps /))
      (tstamp 56B7555F))
    (comp (ref P1)
      (value CONN_01X01)
      (footprint Socket_Strips:Socket_Strip_Straight_1x01)
      (libsource (lib conn) (part CONN_01X01))
      (sheetpath (names /) (tstamps /))
      (tstamp 56C7FDFE))
    (comp (ref P2)
      (value CONN_01X01)
      (footprint Socket_Strips:Socket_Strip_Straight_1x01)
      (libsource (lib conn) (part CONN_01X01))
      (sheetpath (names /) (tstamps /))
      (tstamp 56C7FEED))
    (comp (ref P3)
      (value CONN_02X19)
      (footprint Pin_Headers:Pin_Header_Angled_2x19)
      (libsource (lib conn) (part CONN_02X19))
      (sheetpath (names /) (tstamps /))
      (tstamp 56D584CD))
    (comp (ref R2)
      (value R)
      (footprint Resistors_ThroughHole:Resistor_Horizontal_RM7mm)
      (libsource (lib device) (part R))
      (sheetpath (names /) (tstamps /))
      (tstamp 56E24FA0))
    (comp (ref R1)
      (value R)
      (footprint Resistors_ThroughHole:Resistor_Horizontal_RM7mm)
      (libsource (lib device) (part R))
      (sheetpath (names /) (tstamps /))
      (tstamp 56E2559A))
    (comp (ref R3)
      (value R)
      (footprint Resistors_ThroughHole:Resistor_Horizontal_RM7mm)
      (libsource (lib device) (part R))
      (sheetpath (names /) (tstamps /))
      (tstamp 56E25955))
    (comp (ref HighFetRight1)
      (value Q_NMOS_SDG)
      (footprint TO_SOT_Packages_THT:TO-220_Neutral123_Vertical)
      (libsource (lib device) (part Q_NMOS_SDG))
      (sheetpath (names /) (tstamps /))
      (tstamp 56B615BC))
    (comp (ref D1)
      (value D)
      (footprint Diodes_ThroughHole:Diode_DO-35_SOD27_Horizontal_RM10)
      (libsource (lib device) (part D))
      (sheetpath (names /) (tstamps /))
      (tstamp 56E4ECE2)))
  (libparts
    (libpart (lib device) (part C)
      (description "Unpolarized capacitor")
      (footprints
        (fp C?)
        (fp C_????_*)
        (fp C_????)
        (fp SMD*_c)
        (fp Capacitor*))
      (fields
        (field (name Reference) C)
        (field (name Value) C))
      (pins
        (pin (num 1) (name ~) (type passive))
        (pin (num 2) (name ~) (type passive))))
    (libpart (lib conn) (part CONN_01X01)
      (description "Connector 01x01")
      (footprints
        (fp Pin_Header_Straight_1X01)
        (fp Pin_Header_Angled_1X01)
        (fp Socket_Strip_Straight_1X01)
        (fp Socket_Strip_Angled_1X01))
      (fields
        (field (name Reference) P)
        (field (name Value) CONN_01X01))
      (pins
        (pin (num 1) (name P1) (type passive))))
    (libpart (lib conn) (part CONN_02X19)
      (description "Connector 02x19")
      (footprints
        (fp Pin_Header_Straight_2X19)
        (fp Pin_Header_Angled_2X19)
        (fp Socket_Strip_Straight_2X19)
        (fp Socket_Strip_Angled_2X19))
      (fields
        (field (name Reference) P)
        (field (name Value) CONN_02X19))
      (pins
        (pin (num 1) (name P1) (type passive))
        (pin (num 2) (name P2) (type passive))
        (pin (num 3) (name P3) (type passive))
        (pin (num 4) (name P4) (type passive))
        (pin (num 5) (name P5) (type passive))
        (pin (num 6) (name P6) (type passive))
        (pin (num 7) (name P7) (type passive))
        (pin (num 8) (name P8) (type passive))
        (pin (num 9) (name P9) (type passive))
        (pin (num 10) (name P10) (type passive))
        (pin (num 11) (name P11) (type passive))
        (pin (num 12) (name P12) (type passive))
        (pin (num 13) (name P13) (type passive))
        (pin (num 14) (name P14) (type passive))
        (pin (num 15) (name P15) (type passive))
        (pin (num 16) (name P16) (type passive))
        (pin (num 17) (name P17) (type passive))
        (pin (num 18) (name P18) (type passive))
        (pin (num 19) (name P19) (type passive))
        (pin (num 20) (name P20) (type passive))
        (pin (num 21) (name P21) (type passive))
        (pin (num 22) (name P22) (type passive))
        (pin (num 23) (name P23) (type passive))
        (pin (num 24) (name P24) (type passive))
        (pin (num 25) (name P25) (type passive))
        (pin (num 26) (name P26) (type passive))
        (pin (num 27) (name P27) (type passive))
        (pin (num 28) (name P28) (type passive))
        (pin (num 29) (name P29) (type passive))
        (pin (num 30) (name P30) (type passive))
        (pin (num 31) (name P31) (type passive))
        (pin (num 32) (name P32) (type passive))
        (pin (num 33) (name P33) (type passive))
        (pin (num 34) (name P34) (type passive))
        (pin (num 35) (name P35) (type passive))
        (pin (num 36) (name P36) (type passive))
        (pin (num 37) (name P37) (type passive))
        (pin (num 38) (name P38) (type passive))))
    (libpart (lib device) (part D)
      (description Diode)
      (footprints
        (fp Diode_*)
        (fp D-Pak_TO252AA)
        (fp *SingleDiode)
        (fp *_Diode_*)
        (fp *SingleDiode*))
      (fields
        (field (name Reference) D)
        (field (name Value) D))
      (pins
        (pin (num 1) (name K) (type passive))
        (pin (num 2) (name A) (type passive))))
    (libpart (lib device) (part D_Schottky)
      (description "Diode schottky")
      (footprints
        (fp D-Pak_TO252AA)
        (fp Diode_*)
        (fp *SingleDiode)
        (fp *SingleDiode*)
        (fp *_Diode_*))
      (fields
        (field (name Reference) D)
        (field (name Value) D_Schottky))
      (pins
        (pin (num 1) (name K) (type passive))
        (pin (num 2) (name A) (type passive))))
    (libpart (lib device) (part PHOTORESISTOR)
      (description "Photo resistor")
      (fields
        (field (name Reference) U)
        (field (name Value) PHOTORESISTOR))
      (pins
        (pin (num 1) (name A) (type input))
        (pin (num 2) (name K) (type input))
        (pin (num 3) (name Rh) (type passive))
        (pin (num 4) (name Rl) (type passive))))
    (libpart (lib device) (part Q_NMOS_SDG)
      (description "Transistor N-MOSFET (general)")
      (fields
        (field (name Reference) Q)
        (field (name Value) Q_NMOS_SDG))
      (pins
        (pin (num 1) (name S) (type passive))
        (pin (num 2) (name D) (type passive))
        (pin (num 3) (name G) (type input))))
    (libpart (lib device) (part R)
      (description Resistor)
      (footprints
        (fp R_*)
        (fp Resistor_*))
      (fields
        (field (name Reference) R)
        (field (name Value) R))
      (pins
        (pin (num 1) (name ~) (type passive))
        (pin (num 2) (name ~) (type passive)))))
  (libraries
    (library (logical device)
      (uri /usr/share/kicad/library/device.lib))
    (library (logical conn)
      (uri /usr/share/kicad/library/conn.lib)))
  (nets
    (net (code 1) (name /Motor_+)
      (node (ref R1) (pin 1))
      (node (ref LowFetLeft1) (pin 2))
      (node (ref BootStrap1) (pin 2))
      (node (ref Snub1) (pin 2))
      (node (ref Snub2) (pin 1))
      (node (ref P1) (pin 1))
      (node (ref HighFetLeft1) (pin 1)))
    (net (code 2) (name /Motor_-)
      (node (ref Snub3) (pin 2))
      (node (ref R20) (pin 1))
      (node (ref LowFetRight1) (pin 2))
      (node (ref BootStrap2) (pin 2))
      (node (ref HighFetRight1) (pin 1))
      (node (ref Snub4) (pin 1))
      (node (ref P2) (pin 1)))
    (net (code 3) (name /Drive_Low_1)
      (node (ref U4) (pin 3))
      (node (ref R21) (pin 1)))
    (net (code 4) (name /High_1)
      (node (ref P3) (pin 3))
      (node (ref P3) (pin 4))
      (node (ref R9) (pin 2)))
    (net (code 5) (name "Net-(R9-Pad1)")
      (node (ref R9) (pin 1))
      (node (ref U2) (pin 1)))
    (net (code 6) (name /Low_0)
      (node (ref R18) (pin 2))
      (node (ref P3) (pin 5))
      (node (ref P3) (pin 6)))
    (net (code 7) (name "Net-(R18-Pad1)")
      (node (ref R18) (pin 1))
      (node (ref U3) (pin 1)))
    (net (code 8) (name /Drive_Low_0)
      (node (ref R15) (pin 2))
      (node (ref U3) (pin 3)))
    (net (code 9) (name /Low_1)
      (node (ref R19) (pin 2))
      (node (ref P3) (pin 7))
      (node (ref P3) (pin 8)))
    (net (code 10) (name "Net-(R19-Pad1)")
      (node (ref R19) (pin 1))
      (node (ref U4) (pin 1)))
    (net (code 11) (name /GND)
      (node (ref U1) (pin 2))
      (node (ref P3) (pin 10))
      (node (ref P3) (pin 9))
      (node (ref U2) (pin 2))
      (node (ref U3) (pin 2))
      (node (ref U4) (pin 2)))
    (net (code 12) (name /Drive_VCC)
      (node (ref Snub3) (pin 1))
      (node (ref Snub1) (pin 1))
      (node (ref U4) (pin 4))
      (node (ref P3) (pin 12))
      (node (ref P3) (pin 19))
      (node (ref P3) (pin 17))
      (node (ref P3) (pin 16))
      (node (ref P3) (pin 15))
      (node (ref P3) (pin 24))
      (node (ref P3) (pin 14))
      (node (ref P3) (pin 23))
      (node (ref P3) (pin 13))
      (node (ref P3) (pin 18))
      (node (ref U3) (pin 4))
      (node (ref P3) (pin 20))
      (node (ref P3) (pin 11))
      (node (ref HighFetLeft1) (pin 2))
      (node (ref D2) (pin 2))
      (node (ref P3) (pin 22))
      (node (ref P3) (pin 21))
      (node (ref HighFetRight1) (pin 2))
      (node (ref D1) (pin 2)))
    (net (code 13) (name /Drive_Vcc_High_0)
      (node (ref U1) (pin 4))
      (node (ref BootStrap1) (pin 1))
      (node (ref D2) (pin 1)))
    (net (code 14) (name /Drive_High_0)
      (node (ref R1) (pin 2))
      (node (ref HighFetLeft1) (pin 3))
      (node (ref U1) (pin 3)))
    (net (code 15) (name "Net-(LowFetLeft1-Pad3)")
      (node (ref LowFetLeft1) (pin 3))
      (node (ref R3) (pin 1))
      (node (ref R15) (pin 1)))
    (net (code 16) (name /Drive_GND)
      (node (ref Snub2) (pin 2))
      (node (ref P3) (pin 33))
      (node (ref P3) (pin 31))
      (node (ref P3) (pin 30))
      (node (ref P3) (pin 34))
      (node (ref P3) (pin 25))
      (node (ref Snub4) (pin 2))
      (node (ref P3) (pin 35))
      (node (ref P3) (pin 38))
      (node (ref P3) (pin 26))
      (node (ref P3) (pin 36))
      (node (ref P3) (pin 27))
      (node (ref P3) (pin 29))
      (node (ref P3) (pin 28))
      (node (ref LowFetLeft1) (pin 1))
      (node (ref P3) (pin 37))
      (node (ref R2) (pin 1))
      (node (ref P3) (pin 32))
      (node (ref LowFetRight1) (pin 1))
      (node (ref R3) (pin 2)))
    (net (code 17) (name /Drive_Vcc_High_1)
      (node (ref U2) (pin 4))
      (node (ref D1) (pin 1))
      (node (ref BootStrap2) (pin 1)))
    (net (code 18) (name /Drive_High_1)
      (node (ref HighFetRight1) (pin 3))
      (node (ref U2) (pin 3))
      (node (ref R20) (pin 2)))
    (net (code 19) (name "Net-(LowFetRight1-Pad3)")
      (node (ref LowFetRight1) (pin 3))
      (node (ref R2) (pin 2))
      (node (ref R21) (pin 2)))
    (net (code 20) (name "Net-(R8-Pad1)")
      (node (ref U1) (pin 1))
      (node (ref R8) (pin 1)))
    (net (code 21) (name /High_0)
      (node (ref P3) (pin 1))
      (node (ref P3) (pin 2))
      (node (ref R8) (pin 2)))))